{
  "id": "cmmn-type-cmmn:IfPart",
  "formKey": "",
  "title": {
    "en": "CMMN IfPart Form"
  },
  "description": {
    "en": ""
  },
  "customModule": null,
  "typeRef": "",
  "width": "default",
  "i18n": {},
  "definition": {
    "components": [
      {
        "label": {
          "ru": "Имя",
          "en": "Name"
        },
        "defaultValue": "",
        "key": "name",
        "type": "textfield",
        "input": true
      }
    ]
  },
  "attributes": {}
}
